Final Fundamentos 2020
…
poll_data <- foreign::read.dta("data/pew_research_center_june_elect_wknd_data.dta")

Estima el porcentaje de la población de cada estado (excluyendo Alaska, Hawai, y DC) que se considera very liberal, utilizando el estimador de máxima verosimilitud.

Sabemos que el estimador de maxima verosimilitud de una distribución Binomial es \(\hat p=\frac{x}{n}\)

estimador <- poll_data %>% group_by(state) %>% 
            summarise(total = n(),
                      liberales = sum(ideo == "very liberal", na.rm = T),
                      estimador_mv = liberales / total) %>% 
            filter(! state %in% c("hawaii", "alaska","washington dc")) 
estimador

## # A tibble: 48 x 4
##    state       total liberales estimador_mv
##    <fct>       <int>     <int>        <dbl>
##  1 alabama       624        30       0.0481
##  2 arizona       542        28       0.0517
##  3 arkansas      307         7       0.0228
##  4 california   2854       179       0.0627
##  5 colorado      468        27       0.0577
##  6 connecticut   395        14       0.0354
##  7 delaware      119         7       0.0588
##  8 florida      1747        65       0.0372
##  9 georgia      1023        42       0.0411
## 10 idaho         140        14       0.1   
## # … with 38 more rows
…
Ahora veamos la distribución posterior:

Por lo visto en clase, sabemos que la distribución posterior posterior de una Beta es: \(Beta (k+\alpha,n−k+\beta)\)

simular_posterior <-function(n, k, a=a_inicial, b=b_inical){
  mean(rbeta(20000,k+a,n-k+b))
}

estimador$bayesian=-99
for (i in 1:nrow(estimador)){
  estimador[i,"bayesian"]<-simular_posterior(estimador[i,]$total,estimador[i,]$liberales)
}
estimador

## # A tibble: 48 x 5
##    state       total liberales estimador_mv bayesian
##    <fct>       <int>     <int>        <dbl>    <dbl>
##  1 alabama       624        30       0.0481   0.0477
##  2 arizona       542        28       0.0517   0.0504
##  3 arkansas      307         7       0.0228   0.0298
##  4 california   2854       179       0.0627   0.0620
##  5 colorado      468        27       0.0577   0.0551
##  6 connecticut   395        14       0.0354   0.0382
##  7 delaware      119         7       0.0588   0.0520
##  8 florida      1747        65       0.0372   0.0378
##  9 georgia      1023        42       0.0411   0.0416
## 10 idaho         140        14       0.1      0.0735
## # … with 38 more rows
…
